-------------------------------------------------------------------------------
Test set: LogStatTest
-------------------------------------------------------------------------------
Tests run: 7, Failures: 0, Errors: 0, Skipped: 0, Time elapsed: 5.495 sec - in LogStatTest
